

=========================
WHAT TO DO ON BREAK TODAY
=========================

1. Talk about your PAY
2. Talk about your RIGHTS
3. Begin ORGANIZING A UNION

GOOD employers are not afraid
of these, but ABUSIVE ones are.


Learn More:
=====================
reddit.com/r/antiwork
=====================









